{
  "project_info": {
    "project_number": "431490250276",
    "firebase_url": "https://beerstock-ac0f9.firebaseio.com",
    "project_id": "beerstock-ac0f9",
    "storage_bucket": "beerstock-ac0f9.appspot.com"
  },
  "client": [
    {
      "client_info": {
        "mobilesdk_app_id": "1:431490250276:android:09c0302ac8bec2f71e0ab1",
        "android_client_info": {
          "package_name": "fr.naerion.beer_stock"
        }
      },
      "oauth_client": [
        {
          "client_id": "431490250276-f0trbcn0gkfob3hpqdba5blrdb0aajs0.apps.googleusercontent.com",
          "client_type": 1,
          "android_info": {
            "package_name": "fr.naerion.beer_stock",
            "certificate_hash": "fc8810d8c3bcd508f5c1d15a804364d8eebbd883"
          }
        },
        {
          "client_id": "431490250276-t607avaf5ukb9b6as47c20gam10la8ph.apps.googleusercontent.com",
          "client_type": 3
        }
      ],
      "api_key": [
        {
          "current_key": "AIzaSyDmy03Wn38tIyr24BJDi945S2DErPDgiik"
        }
      ],
      "services": {
        "appinvite_service": {
          "other_platform_oauth_client": [
            {
              "client_id": "431490250276-t607avaf5ukb9b6as47c20gam10la8ph.apps.googleusercontent.com",
              "client_type": 3
            }
          ]
        }
      }
    }
  ],
  "configuration_version": "1"
}